# Fdb version 3
["cusdep sage sout unit03-section01.sagetex"] 1593557165 "unit03-section01.sagetex.sage" "unit03-section01.sagetex.sout" "unit03-section01.sagetex" 1593557175
  "unit03-section01.sagetex.sage" 1593557172 12808 2bd0fe74c371e8a7a53aa8de1a21ca25 "pdflatex"
  (generated)
  "unit03-section01.sagetex.sout"
["pdflatex"] 1593557169 "unit03-section01.tex" "unit03-section01.pdf" "unit03-section01" 1593557175
  "../style.tex" 1593557119 4125 b8b91cf5d621b0f2aa0372454cb3ac41 ""
  "/usr/share/texmf-dist/fonts/enc/dvips/cm-super/cm-super-ts1.enc" 1591545468 2900 1537cc8184ad1792082cd229ecc269f4 ""
  "/usr/share/texmf-dist/fonts/map/fontname/texfonts.map" 1591545468 3524 cb3e574dea2d1052e39280babc910dc8 ""
  "/usr/share/texmf-dist/fonts/tfm/adobe/symbol/psyr.tfm" 1591545468 1408 5937f58aa508ea2cea4901c07d10f5fe ""
  "/usr/share/texmf-dist/fonts/tfm/adobe/zapfding/pzdr.tfm" 1591545468 1528 f853c4d1b4e0550255e02831fdc8496f ""
  "/usr/share/texmf-dist/fonts/tfm/jknappen/ec/tcrm1200.tfm" 1591545468 1536 74b7293ec3713bb7fdca8dd1bd1f469c ""
  "/usr/share/texmf-dist/fonts/tfm/public/amsfonts/cmextra/cmex7.tfm" 1591545468 1004 54797486969f23fa377b128694d548df ""
  "/usr/share/texmf-dist/fonts/tfm/public/amsfonts/cmextra/cmex8.tfm" 1591545468 988 bdf658c3bfc2d96d3c8b02cfc1c94c20 ""
  "/usr/share/texmf-dist/fonts/tfm/public/amsfonts/symbols/msam10.tfm" 1591545468 916 f87d7c45f9c908e672703b83b72241a3 ""
  "/usr/share/texmf-dist/fonts/tfm/public/amsfonts/symbols/msam5.tfm" 1591545468 924 9904cf1d39e9767e7a3622f2a125a565 ""
  "/usr/share/texmf-dist/fonts/tfm/public/amsfonts/symbols/msam7.tfm" 1591545468 928 2dc8d444221b7a635bb58038579b861a ""
  "/usr/share/texmf-dist/fonts/tfm/public/amsfonts/symbols/msbm10.tfm" 1591545468 908 2921f8a10601f252058503cc6570e581 ""
  "/usr/share/texmf-dist/fonts/tfm/public/amsfonts/symbols/msbm5.tfm" 1591545468 940 75ac932a52f80982a9f8ea75d03a34cf ""
  "/usr/share/texmf-dist/fonts/tfm/public/amsfonts/symbols/msbm7.tfm" 1591545468 940 228d6584342e91276bf566bcf9716b83 ""
  "/usr/share/texmf-dist/fonts/tfm/public/cm/cmbx12.tfm" 1591545468 1324 c910af8c371558dc20f2d7822f66fe64 ""
  "/usr/share/texmf-dist/fonts/tfm/public/cm/cmex10.tfm" 1591545468 992 662f679a0b3d2d53c1b94050fdaa3f50 ""
  "/usr/share/texmf-dist/fonts/tfm/public/cm/cmmi12.tfm" 1591545468 1524 4414a8315f39513458b80dfc63bff03a ""
  "/usr/share/texmf-dist/fonts/tfm/public/cm/cmmi6.tfm" 1591545468 1512 f21f83efb36853c0b70002322c1ab3ad ""
  "/usr/share/texmf-dist/fonts/tfm/public/cm/cmmi8.tfm" 1591545468 1520 eccf95517727cb11801f4f1aee3a21b4 ""
  "/usr/share/texmf-dist/fonts/tfm/public/cm/cmr12.tfm" 1591545468 1288 655e228510b4c2a1abe905c368440826 ""
  "/usr/share/texmf-dist/fonts/tfm/public/cm/cmr17.tfm" 1591545468 1292 296a67155bdbfc32aa9c636f21e91433 ""
  "/usr/share/texmf-dist/fonts/tfm/public/cm/cmr6.tfm" 1591545468 1300 b62933e007d01cfd073f79b963c01526 ""
  "/usr/share/texmf-dist/fonts/tfm/public/cm/cmr8.tfm" 1591545468 1292 21c1c5bfeaebccffdb478fd231a0997d ""
  "/usr/share/texmf-dist/fonts/tfm/public/cm/cmss10.tfm" 1591545468 1316 b636689f1933f24d1294acdf6041daaa ""
  "/usr/share/texmf-dist/fonts/tfm/public/cm/cmss12.tfm" 1591545468 1324 37b971caf729d7edd9cbb9f9b0ea76eb ""
  "/usr/share/texmf-dist/fonts/tfm/public/cm/cmss8.tfm" 1591545468 1296 d77f431d10d47c8ea2cc18cf45346274 ""
  "/usr/share/texmf-dist/fonts/tfm/public/cm/cmsy10.tfm" 1591545468 1124 6c73e740cf17375f03eec0ee63599741 ""
  "/usr/share/texmf-dist/fonts/tfm/public/cm/cmsy6.tfm" 1591545468 1116 933a60c408fc0a863a92debe84b2d294 ""
  "/usr/share/texmf-dist/fonts/tfm/public/cm/cmsy8.tfm" 1591545468 1120 8b7d695260f3cff42e636090a8002094 ""
  "/usr/share/texmf-dist/fonts/tfm/public/cm/cmti12.tfm" 1591545468 1484 ed72f8f5cf654cda15ecc8e32bfcbee5 ""
  "/usr/share/texmf-dist/fonts/tfm/public/cm/cmtt10.tfm" 1591545468 768 1321e9409b4137d6fb428ac9dc956269 ""
  "/usr/share/texmf-dist/fonts/tfm/public/cm/cmtt12.tfm" 1591545468 772 9a936b7f5e2ff0557fce0f62822f0bbf ""
  "/usr/share/texmf-dist/fonts/tfm/public/cm/cmtt8.tfm" 1591545468 768 d7b9a2629a0c353102ad947dc9221d49 ""
  "/usr/share/texmf-dist/fonts/tfm/public/esvect/vect10.tfm" 1591522338 372 07da2e555f4c8dac959d0bb59cacb4dc ""
  "/usr/share/texmf-dist/fonts/tfm/public/esvect/vect5.tfm" 1591522338 372 28e18d88a38be26cb20dc1302f0fdc04 ""
  "/usr/share/texmf-dist/fonts/tfm/public/esvect/vect6.tfm" 1591522338 372 e6493454680b692175addf943602cee1 ""
  "/usr/share/texmf-dist/fonts/tfm/public/esvect/vect7.tfm" 1591522338 372 343d7e2023bd46714a16077de230ba32 ""
  "/usr/share/texmf-dist/fonts/tfm/public/esvect/vect8.tfm" 1591522338 372 4f0047d7e99a201724968cf4743804cf ""
  "/usr/share/texmf-dist/fonts/tfm/public/rsfs/rsfs10.tfm" 1591545468 688 37338d6ab346c2f1466b29e195316aa4 ""
  "/usr/share/texmf-dist/fonts/tfm/public/rsfs/rsfs5.tfm" 1591545468 684 3a51bd4fd9600428d5264cf25f04bb9a ""
  "/usr/share/texmf-dist/fonts/tfm/public/rsfs/rsfs7.tfm" 1591545468 692 1b6510779f0f05e9cbf03e0f6c8361e6 ""
  "/usr/share/texmf-dist/fonts/type1/public/amsfonts/cm/cmbx12.pfb" 1591545468 32080 340ef9bf63678554ee606688e7b5339d ""
  "/usr/share/texmf-dist/fonts/type1/public/amsfonts/cm/cmex10.pfb" 1591545468 30251 6afa5cb1d0204815a708a080681d4674 ""
  "/usr/share/texmf-dist/fonts/type1/public/amsfonts/cm/cmmi12.pfb" 1591545468 36741 fa121aac0049305630cf160b86157ee4 ""
  "/usr/share/texmf-dist/fonts/type1/public/amsfonts/cm/cmmi8.pfb" 1591545468 35469 70d41d2b9ea31d5d813066df7c99281c ""
  "/usr/share/texmf-dist/fonts/type1/public/amsfonts/cm/cmr12.pfb" 1591545468 32722 d7379af29a190c3f453aba36302ff5a9 ""
  "/usr/share/texmf-dist/fonts/type1/public/amsfonts/cm/cmr17.pfb" 1591545468 32362 179c33bbf43f19adbb3825bb4e36e57a ""
  "/usr/share/texmf-dist/fonts/type1/public/amsfonts/cm/cmr6.pfb" 1591545468 32734 69e00a6b65cedb993666e42eedb3d48f ""
  "/usr/share/texmf-dist/fonts/type1/public/amsfonts/cm/cmr8.pfb" 1591545468 32726 0a1aea6fcd6468ee2cf64d891f5c43c8 ""
  "/usr/share/texmf-dist/fonts/type1/public/amsfonts/cm/cmsy10.pfb" 1591545468 32569 5e5ddc8df908dea60932f3c484a54c0d ""
  "/usr/share/texmf-dist/fonts/type1/public/amsfonts/cm/cmti12.pfb" 1591545468 36118 fad905eba93cff5bce1e185fe980a177 ""
  "/usr/share/texmf-dist/fonts/type1/public/amsfonts/symbols/msam10.pfb" 1591545468 31764 459c573c03a4949a528c2cc7f557e217 ""
  "/usr/share/texmf-dist/fonts/type1/public/cm-super/sfrm1200.pfb" 1591545468 136101 f533469f523533d38317ab5729d00c8a ""
  "/usr/share/texmf-dist/fonts/type1/public/esvect/vect10.pfb" 1591522338 18279 772052a8794705f886186d0ebf2af187 ""
  "/usr/share/texmf-dist/tex/context/base/mkii/supp-pdf.mkii" 1591545468 71627 94eb9990bed73c364d7f53f960cc8c5b ""
  "/usr/share/texmf-dist/tex/generic/atbegshi/atbegshi.sty" 1591545468 24708 5584a51a7101caf7e6bbf1fc27d8f7b1 ""
  "/usr/share/texmf-dist/tex/generic/bigintcalc/bigintcalc.sty" 1591545468 40635 c40361e206be584d448876bba8a64a3b ""
  "/usr/share/texmf-dist/tex/generic/bitset/bitset.sty" 1591545468 33961 6b5c75130e435b2bfdb9f480a09a39f9 ""
  "/usr/share/texmf-dist/tex/generic/etexcmds/etexcmds.sty" 1591545468 7734 b98cbb34c81f667027c1e3ebdbfce34b ""
  "/usr/share/texmf-dist/tex/generic/gettitlestring/gettitlestring.sty" 1591545468 8371 9d55b8bd010bc717624922fb3477d92e ""
  "/usr/share/texmf-dist/tex/generic/iftex/ifpdf.sty" 1591545468 480 5778104efadad304ced77548ca2184b1 ""
  "/usr/share/texmf-dist/tex/generic/iftex/iftex.sty" 1591545468 6501 4011d89d9621e0b0901138815ba5ff29 ""
  "/usr/share/texmf-dist/tex/generic/iftex/ifxetex.sty" 1591545468 488 4565444a3e75e59cb2702dc42e18f482 ""
  "/usr/share/texmf-dist/tex/generic/infwarerr/infwarerr.sty" 1591545468 8356 7bbb2c2373aa810be568c29e333da8ed ""
  "/usr/share/texmf-dist/tex/generic/intcalc/intcalc.sty" 1591545468 31769 002a487f55041f8e805cfbf6385ffd97 ""
  "/usr/share/texmf-dist/tex/generic/kvdefinekeys/kvdefinekeys.sty" 1591545468 5412 d5a2436094cd7be85769db90f29250a6 ""
  "/usr/share/texmf-dist/tex/generic/kvsetkeys/kvsetkeys.sty" 1591545468 13807 952b0226d4efca026f0e19dd266dcc22 ""
  "/usr/share/texmf-dist/tex/generic/ltxcmds/ltxcmds.sty" 1591545468 18552 1e1cc7b75da0dfaacce7cdcb27d306bf ""
  "/usr/share/texmf-dist/tex/generic/pdfescape/pdfescape.sty" 1591545468 19007 15924f7228aca6c6d184b115f4baa231 ""
  "/usr/share/texmf-dist/tex/generic/pgf/basiclayer/pgfcore.code.tex" 1591545468 992 fb3cda354707a54fda62787a411c7c22 ""
  "/usr/share/texmf-dist/tex/generic/pgf/basiclayer/pgfcorearrows.code.tex" 1591545468 43820 bc6cf5aa959817914ace33f5c6232161 ""
  "/usr/share/texmf-dist/tex/generic/pgf/basiclayer/pgfcoreexternal.code.tex" 1591545468 19324 c9a64402f22bd8d81821141a357af653 ""
  "/usr/share/texmf-dist/tex/generic/pgf/basiclayer/pgfcoregraphicstate.code.tex" 1591545468 6038 d639d02574be9a72f3c602c2a3510e02 ""
  "/usr/share/texmf-dist/tex/generic/pgf/basiclayer/pgfcoreimage.code.tex" 1591545468 6948 284bbe3c9a7ca0a826c1c03895e69b9f ""
  "/usr/share/texmf-dist/tex/generic/pgf/basiclayer/pgfcorelayers.code.tex" 1591545468 4883 a6f3eb1f71d8c4affaf43a169828b043 ""
  "/usr/share/texmf-dist/tex/generic/pgf/basiclayer/pgfcoreobjects.code.tex" 1591545468 2544 3b1b198fd49f01e328adc9162a07b213 ""
  "/usr/share/texmf-dist/tex/generic/pgf/basiclayer/pgfcorepathconstruct.code.tex" 1591545468 44189 1fd6229dad4c898883516c032f2ca5d2 ""
  "/usr/share/texmf-dist/tex/generic/pgf/basiclayer/pgfcorepathprocessing.code.tex" 1591545468 17311 3092579be20ef0f229c42ad3f09da85c ""
  "/usr/share/texmf-dist/tex/generic/pgf/basiclayer/pgfcorepathusage.code.tex" 1591545468 21302 d6c4b340248adbe650ebf6ca76bdccca ""
  "/usr/share/texmf-dist/tex/generic/pgf/basiclayer/pgfcorepatterns.code.tex" 1591545468 9690 7585efa5a591822837f837bc5bc35621 ""
  "/usr/share/texmf-dist/tex/generic/pgf/basiclayer/pgfcorepoints.code.tex" 1591545468 33335 942ccafe284041918d36e54696b98aa7 ""
  "/usr/share/texmf-dist/tex/generic/pgf/basiclayer/pgfcorequick.code.tex" 1591545468 2965 502761b60f43ab2de5ecb2f4625163ae ""
  "/usr/share/texmf-dist/tex/generic/pgf/basiclayer/pgfcorerdf.code.tex" 1591545468 5196 f8c5c775d4d6e2cb050392127cabda72 ""
  "/usr/share/texmf-dist/tex/generic/pgf/basiclayer/pgfcorescopes.code.tex" 1591545468 20726 ed6ec1d6f0f35e7a93de4e79af83dbce ""
  "/usr/share/texmf-dist/tex/generic/pgf/basiclayer/pgfcoreshade.code.tex" 1591545468 35249 144a6b9c4df4644618bb3a0a40472608 ""
  "/usr/share/texmf-dist/tex/generic/pgf/basiclayer/pgfcoretransformations.code.tex" 1591545468 21989 266e83c51fe41eb8b8d5e6896dc71cc1 ""
  "/usr/share/texmf-dist/tex/generic/pgf/basiclayer/pgfcoretransparency.code.tex" 1591545468 8842 5cc856e132fac404805c6da091779283 ""
  "/usr/share/texmf-dist/tex/generic/pgf/frontendlayer/tikz/libraries/tikzlibrary3d.code.tex" 1591545468 3243 0be7816a112df05ed4584970d9826654 ""
  "/usr/share/texmf-dist/tex/generic/pgf/frontendlayer/tikz/libraries/tikzlibraryangles.code.tex" 1591545468 3614 59f4355ade5fd6073a4e2be9b54c0b95 ""
  "/usr/share/texmf-dist/tex/generic/pgf/frontendlayer/tikz/libraries/tikzlibraryarrows.code.tex" 1591545468 319 8fc6edce901e074ba09de320a8fc686b ""
  "/usr/share/texmf-dist/tex/generic/pgf/frontendlayer/tikz/libraries/tikzlibrarybabel.code.tex" 1591545468 380 da9c51fa5041ab6902735fb3486588a8 ""
  "/usr/share/texmf-dist/tex/generic/pgf/frontendlayer/tikz/libraries/tikzlibrarybackgrounds.code.tex" 1591545468 4572 980c82f01c0e3983edadbbc373d304cb ""
  "/usr/share/texmf-dist/tex/generic/pgf/frontendlayer/tikz/libraries/tikzlibrarycalc.code.tex" 1591545468 15929 6d98a2cba15e8807518c016b5ad380a9 ""
  "/usr/share/texmf-dist/tex/generic/pgf/frontendlayer/tikz/libraries/tikzlibrarydecorations.code.tex" 1591545468 5493 6342997a7484f1ea9feacd1b25ead9ea ""
  "/usr/share/texmf-dist/tex/generic/pgf/frontendlayer/tikz/libraries/tikzlibrarydecorations.markings.code.tex" 1591545468 788 74b915b0c9481366173f741313d3f739 ""
  "/usr/share/texmf-dist/tex/generic/pgf/frontendlayer/tikz/libraries/tikzlibrarydecorations.pathmorphing.code.tex" 1591545468 321 61aafaff3134e44ce6305fdd6927cdc5 ""
  "/usr/share/texmf-dist/tex/generic/pgf/frontendlayer/tikz/libraries/tikzlibrarydecorations.pathreplacing.code.tex" 1591545468 1319 b38e66120927828ef91b8bfec59e82f3 ""
  "/usr/share/texmf-dist/tex/generic/pgf/frontendlayer/tikz/libraries/tikzlibrarydecorations.shapes.code.tex" 1591545468 315 7c9ae03b83e0861e75800799cbeea591 ""
  "/usr/share/texmf-dist/tex/generic/pgf/frontendlayer/tikz/libraries/tikzlibrarydecorations.text.code.tex" 1591545468 29754 89819f479e3b819bed2e4c8f2914e9f5 ""
  "/usr/share/texmf-dist/tex/generic/pgf/frontendlayer/tikz/libraries/tikzlibraryfadings.code.tex" 1591545468 1179 bb12be2a349da04542eb1820d6ef2546 ""
  "/usr/share/texmf-dist/tex/generic/pgf/frontendlayer/tikz/libraries/tikzlibraryintersections.code.tex" 1591545468 5286 5e33982a0c637f03a5a580b6c0b6d788 ""
  "/usr/share/texmf-dist/tex/generic/pgf/frontendlayer/tikz/libraries/tikzlibrarymatrix.code.tex" 1591545468 4202 e655aa2657da1088ec7745ece2876c4c ""
  "/usr/share/texmf-dist/tex/generic/pgf/frontendlayer/tikz/libraries/tikzlibrarypatterns.code.tex" 1591545468 770 618a89f4ac550a393f10702d3046162f ""
  "/usr/share/texmf-dist/tex/generic/pgf/frontendlayer/tikz/libraries/tikzlibraryplotmarks.code.tex" 1591545468 325 dd99a5daacaad68231ba39fa31c3e277 ""
  "/usr/share/texmf-dist/tex/generic/pgf/frontendlayer/tikz/libraries/tikzlibrarypositioning.code.tex" 1591545468 3937 20cd45386ca23052ce976464f0ada984 ""
  "/usr/share/texmf-dist/tex/generic/pgf/frontendlayer/tikz/libraries/tikzlibraryquotes.code.tex" 1591545468 3931 5fb0eaae891015bd03ff91a20998aec4 ""
  "/usr/share/texmf-dist/tex/generic/pgf/frontendlayer/tikz/libraries/tikzlibraryshadows.code.tex" 1591545468 2889 cc480f49ed20c2fcdee5258286919df6 ""
  "/usr/share/texmf-dist/tex/generic/pgf/frontendlayer/tikz/libraries/tikzlibraryshapes.misc.code.tex" 1591545468 329 b7a8d335163f5b4dbd019ac579f101d8 ""
  "/usr/share/texmf-dist/tex/generic/pgf/frontendlayer/tikz/libraries/tikzlibrarythrough.code.tex" 1591545468 1040 0a5dc9d58f9fa2ab1b79c0e76a2a8c9c ""
  "/usr/share/texmf-dist/tex/generic/pgf/frontendlayer/tikz/libraries/tikzlibrarytopaths.code.tex" 1591545468 11544 2a5d66a3270abf4ef673e8a0b7734a90 ""
  "/usr/share/texmf-dist/tex/generic/pgf/frontendlayer/tikz/tikz.code.tex" 1591545468 187592 7922ceab1864698dec4c84978d5b182f ""
  "/usr/share/texmf-dist/tex/generic/pgf/libraries/decorations/pgflibrarydecorations.markings.code.tex" 1591545468 5190 564f6cf52f90869c8e55bc69c03d5497 ""
  "/usr/share/texmf-dist/tex/generic/pgf/libraries/decorations/pgflibrarydecorations.pathmorphing.code.tex" 1591545468 8843 8328b4068b5b11eaa173e0957cd0eac5 ""
  "/usr/share/texmf-dist/tex/generic/pgf/libraries/decorations/pgflibrarydecorations.pathreplacing.code.tex" 1591545468 7474 acce7114514030373cc6cb938a73a92e ""
  "/usr/share/texmf-dist/tex/generic/pgf/libraries/decorations/pgflibrarydecorations.shapes.code.tex" 1591545468 16467 cc12f9d13de69c013ea68e656fa0a991 ""
  "/usr/share/texmf-dist/tex/generic/pgf/libraries/decorations/pgflibrarydecorations.text.code.tex" 1591545468 12656 77c91824256655d2648f978b478492e2 ""
  "/usr/share/texmf-dist/tex/generic/pgf/libraries/pgflibraryarrows.code.tex" 1591545468 31874 d843d507175f2bdfa3abf01f0349dac8 ""
  "/usr/share/texmf-dist/tex/generic/pgf/libraries/pgflibraryarrows.meta.code.tex" 1591545468 58801 c503519b1e019b14dc7fb801de6de024 ""
  "/usr/share/texmf-dist/tex/generic/pgf/libraries/pgflibraryfadings.code.tex" 1591545468 2563 97c355d55617296f2e7ef7030bada827 ""
  "/usr/share/texmf-dist/tex/generic/pgf/libraries/pgflibraryfpu.code.tex" 1591545468 83910 20dfc3ec7fa0b1c2b3bb20376d4a1a54 ""
  "/usr/share/texmf-dist/tex/generic/pgf/libraries/pgflibraryintersections.code.tex" 1591545468 44571 ecc73424ea12eefd622053add61bc992 ""
  "/usr/share/texmf-dist/tex/generic/pgf/libraries/pgflibrarypatterns.code.tex" 1591545468 7936 1d559f55663b722daf7ce26cef4c3906 ""
  "/usr/share/texmf-dist/tex/generic/pgf/libraries/pgflibraryplothandlers.code.tex" 1591545468 32995 a4d54c043ae5274ceaaddeb36ad43a6f ""
  "/usr/share/texmf-dist/tex/generic/pgf/libraries/pgflibraryplotmarks.code.tex" 1591545468 14524 f7f259aa362ad7d5bf9235db788feef3 ""
  "/usr/share/texmf-dist/tex/generic/pgf/libraries/shapes/pgflibraryshapes.misc.code.tex" 1591545468 46241 d4ce0f60786a8555b975b7d1ddfb331c ""
  "/usr/share/texmf-dist/tex/generic/pgf/math/pgfint.code.tex" 1591545468 3063 8c415c68a0f3394e45cfeca0b65f6ee6 ""
  "/usr/share/texmf-dist/tex/generic/pgf/math/pgfmath.code.tex" 1591545468 521 c70cf6ad609de83a27ee7929eb356332 ""
  "/usr/share/texmf-dist/tex/generic/pgf/math/pgfmathcalc.code.tex" 1591545468 13391 933cab19c6d27039dbfc487330d1005a ""
  "/usr/share/texmf-dist/tex/generic/pgf/math/pgfmathfloat.code.tex" 1591545468 104938 15f2d8bdabd6bf9ca70f62cd8e3d4940 ""
  "/usr/share/texmf-dist/tex/generic/pgf/math/pgfmathfunctions.base.code.tex" 1591545468 10157 218d58ab074e5bd0d027de45ec64cc00 ""
  "/usr/share/texmf-dist/tex/generic/pgf/math/pgfmathfunctions.basic.code.tex" 1591545468 28176 568b081ec39645f2db1a29fbd0c635e2 ""
  "/usr/share/texmf-dist/tex/generic/pgf/math/pgfmathfunctions.code.tex" 1591545468 9054 388d21239a1b6df2cc8beaae31c976b0 ""
  "/usr/share/texmf-dist/tex/generic/pgf/math/pgfmathfunctions.comparison.code.tex" 1591545468 3865 cddf7ddc80f018587c55afdcc79fc333 ""
  "/usr/share/texmf-dist/tex/generic/pgf/math/pgfmathfunctions.integerarithmetics.code.tex" 1591545468 3177 27d85c44fbfe09ff3b2cf2879e3ea434 ""
  "/usr/share/texmf-dist/tex/generic/pgf/math/pgfmathfunctions.misc.code.tex" 1591545468 10925 df50b8a6e5660a585e3a2bf55726dcc8 ""
  "/usr/share/texmf-dist/tex/generic/pgf/math/pgfmathfunctions.random.code.tex" 1591545468 7787 1750fc3f164703caf31fc8ea9218c67e ""
  "/usr/share/texmf-dist/tex/generic/pgf/math/pgfmathfunctions.round.code.tex" 1591545468 3379 cbd0948a550bd7a495a160ca6beee9ed ""
  "/usr/share/texmf-dist/tex/generic/pgf/math/pgfmathfunctions.trigonometric.code.tex" 1591545468 92405 bba89470858d7b0788a9c09331c39653 ""
  "/usr/share/texmf-dist/tex/generic/pgf/math/pgfmathparser.code.tex" 1591545468 36526 453db1f8626a56b5ebb0fad496d6a39f ""
  "/usr/share/texmf-dist/tex/generic/pgf/math/pgfmathutil.code.tex" 1591545468 8471 b18959397c76e1e582402ab9f592ed9f ""
  "/usr/share/texmf-dist/tex/generic/pgf/modules/pgfmoduledecorations.code.tex" 1591545468 71722 1aa2adb2b5cb7aafc25e92426626ab63 ""
  "/usr/share/texmf-dist/tex/generic/pgf/modules/pgfmodulematrix.code.tex" 1591545468 21201 46a4dded6619f990ac7347f99fbaac9f ""
  "/usr/share/texmf-dist/tex/generic/pgf/modules/pgfmoduleplot.code.tex" 1591545468 16121 9e240115374a8d489f2f786115df83a9 ""
  "/usr/share/texmf-dist/tex/generic/pgf/modules/pgfmoduleshapes.code.tex" 1591545468 43259 3e05ba63539916af2eaca603c2eda780 ""
  "/usr/share/texmf-dist/tex/generic/pgf/pgf.revision.tex" 1591545468 465 1f401ab1e7fc6cb7ede39e96c66531fd ""
  "/usr/share/texmf-dist/tex/generic/pgf/systemlayer/pgf.cfg" 1591545468 926 70ff613fabeb70f5d1673dc0c93987bd ""
  "/usr/share/texmf-dist/tex/generic/pgf/systemlayer/pgfsys-common-pdf.def" 1591545468 5546 3586827e6032c95512b2a6682d2979a3 ""
  "/usr/share/texmf-dist/tex/generic/pgf/systemlayer/pgfsys-luatex.def" 1591545468 13214 dd7528d1b54531af922516f1e20068a2 ""
  "/usr/share/texmf-dist/tex/generic/pgf/systemlayer/pgfsys-pdftex.def" 1591545468 12603 c02869ea216d842c29d52fae8738264e ""
  "/usr/share/texmf-dist/tex/generic/pgf/systemlayer/pgfsys.code.tex" 1591545468 60269 e86bc0081af83a4ad47e4500ee09a2e4 ""
  "/usr/share/texmf-dist/tex/generic/pgf/systemlayer/pgfsysprotocol.code.tex" 1591545468 1896 82c274ff520f9e450ccea4e3ef4edc12 ""
  "/usr/share/texmf-dist/tex/generic/pgf/systemlayer/pgfsyssoftpath.code.tex" 1591545468 7778 a25a32a10ca820357491d4c7b3ac02ea ""
  "/usr/share/texmf-dist/tex/generic/pgf/utilities/pgffor.code.tex" 1591545468 23777 cb6c8f02f87d86d621f5cb92c44f4998 ""
  "/usr/share/texmf-dist/tex/generic/pgf/utilities/pgfkeys.code.tex" 1591545468 36815 f7f1772c398f07af2cb741992963045c ""
  "/usr/share/texmf-dist/tex/generic/pgf/utilities/pgfkeysfiltered.code.tex" 1591545468 37439 bd44d50aef702b03193f731207931834 ""
  "/usr/share/texmf-dist/tex/generic/pgf/utilities/pgfrcs.code.tex" 1591545468 4494 7e5ace0ccf59408f2cf63219a5d36927 ""
  "/usr/share/texmf-dist/tex/generic/pgf/utilities/pgfutil-common-lists.tex" 1591545468 7250 03b2b9fb5fa38e7ca5cc3c45860fb210 ""
  "/usr/share/texmf-dist/tex/generic/pgf/utilities/pgfutil-common.tex" 1591545468 28309 488ccc6c701bbdd1bf671f708757aa5c ""
  "/usr/share/texmf-dist/tex/generic/pgf/utilities/pgfutil-latex.def" 1591545468 6286 1bd76fc45da9929ab2a64f51cba3ab6f ""
  "/usr/share/texmf-dist/tex/generic/pgfplots/libs/pgflibrarypgfplots.surfshading.code.tex" 1591525106 22701 5fab7b8ebb90b053dc067d1bd37e43c2 ""
  "/usr/share/texmf-dist/tex/generic/pgfplots/libs/pgfplotslibrary.code.tex" 1591525106 3047 aa82404aec57311271f4991c44bd71dc ""
  "/usr/share/texmf-dist/tex/generic/pgfplots/liststructure/pgfplotsarray.code.tex" 1591525106 23537 54be8160344d894595f6d145b1311658 ""
  "/usr/share/texmf-dist/tex/generic/pgfplots/liststructure/pgfplotsdeque.code.tex" 1591525106 4288 b8d6247899b21e3bb66bb11b24d30f2c ""
  "/usr/share/texmf-dist/tex/generic/pgfplots/liststructure/pgfplotsliststructure.code.tex" 1591525106 13828 11d1b09335a4a8baa693dd1e6cac3edf ""
  "/usr/share/texmf-dist/tex/generic/pgfplots/liststructure/pgfplotsliststructureext.code.tex" 1591525106 24373 6544c1554e5da33118301011eb03058d ""
  "/usr/share/texmf-dist/tex/generic/pgfplots/liststructure/pgfplotsmatrix.code.tex" 1591525106 18861 7dc35832c8ccea3aa73cdcd75ec0a60b ""
  "/usr/share/texmf-dist/tex/generic/pgfplots/numtable/pgfplotstableshared.code.tex" 1591525106 83469 f77a7d8a23834d4c2472f8dba8e67bff ""
  "/usr/share/texmf-dist/tex/generic/pgfplots/oldpgfcompatib/pgfplotsoldpgfsupp_loader.code.tex" 1591525106 12347 43d867ea29e34d528123d9ef750aa146 ""
  "/usr/share/texmf-dist/tex/generic/pgfplots/pgfplots.code.tex" 1591525106 484290 caea27cd6fb92bee42d780744628835e ""
  "/usr/share/texmf-dist/tex/generic/pgfplots/pgfplots.errorbars.code.tex" 1591525106 22428 72578a4c9324bc5dfafe23fe64f64024 ""
  "/usr/share/texmf-dist/tex/generic/pgfplots/pgfplots.markers.code.tex" 1591525106 12489 859c23df41fb9067128ef5a64b01c0a4 ""
  "/usr/share/texmf-dist/tex/generic/pgfplots/pgfplots.paths.code.tex" 1591525106 3533 973f376afa5a4526f16b11630b9931b4 ""
  "/usr/share/texmf-dist/tex/generic/pgfplots/pgfplots.revision.tex" 1591525106 516 008784cc48c9187f099ff003cec6516a ""
  "/usr/share/texmf-dist/tex/generic/pgfplots/pgfplots.scaling.code.tex" 1591525106 123680 d33fda4929d7200c3e6f0ec83c006aef ""
  "/usr/share/texmf-dist/tex/generic/pgfplots/pgfplotscoordprocessing.code.tex" 1591525106 367035 be5ad6faf030b5e07b899b712359f9d2 ""
  "/usr/share/texmf-dist/tex/generic/pgfplots/pgfplotscore.code.tex" 1591525106 19944 7957349fbe31c4e8dea9de4cd41cb086 ""
  "/usr/share/texmf-dist/tex/generic/pgfplots/pgfplotsmeshplothandler.code.tex" 1591525106 133871 7247b31742a2240343a6739cb76d6821 ""
  "/usr/share/texmf-dist/tex/generic/pgfplots/pgfplotsmeshplotimage.code.tex" 1591525106 24402 288fc3f6c7980728b8a519dfd1737d22 ""
  "/usr/share/texmf-dist/tex/generic/pgfplots/pgfplotsplothandlers.code.tex" 1591525106 117959 1e3bc7fa9f198fdae686d98f31121098 ""
  "/usr/share/texmf-dist/tex/generic/pgfplots/pgfplotsstackedplots.code.tex" 1591525106 26190 c428334c805ae1d15110eb8670292947 ""
  "/usr/share/texmf-dist/tex/generic/pgfplots/pgfplotsticks.code.tex" 1591525106 91244 1a0e9e49b7a2d10d1b1a610306ba4f8c ""
  "/usr/share/texmf-dist/tex/generic/pgfplots/sys/pgflibrarypgfplots.surfshading.pgfsys-pdftex.def" 1591525106 5907 9dc460712c23e5b3338820499d47608c ""
  "/usr/share/texmf-dist/tex/generic/pgfplots/sys/pgfplotssysgeneric.code.tex" 1591525106 3095 c82d281b748902a65be2ccca97360b11 ""
  "/usr/share/texmf-dist/tex/generic/pgfplots/util/pgfplotsbinary.code.tex" 1591525106 23050 a369aa910ef860a3621fe0459faa335c ""
  "/usr/share/texmf-dist/tex/generic/pgfplots/util/pgfplotsbinary.data.code.tex" 1591525106 26859 7a4ee9d206fb0a0daa0d3108445afb57 ""
  "/usr/share/texmf-dist/tex/generic/pgfplots/util/pgfplotscolor.code.tex" 1591525106 23958 1b96260863091af1669c3a38b1c4c9af ""
  "/usr/share/texmf-dist/tex/generic/pgfplots/util/pgfplotscolormap.code.tex" 1591525106 88956 018b2512ef27998e97af72e8b1dcdbd5 ""
  "/usr/share/texmf-dist/tex/generic/pgfplots/util/pgfplotsutil.code.tex" 1591525106 71110 bbc5bf1ad9c1c1213e14ccb5d14dd931 ""
  "/usr/share/texmf-dist/tex/generic/pgfplots/util/pgfplotsutil.verb.code.tex" 1591525106 3286 c17079ba50483e1ac1721268ea016041 ""
  "/usr/share/texmf-dist/tex/generic/stringenc/stringenc.sty" 1591545468 21514 b7557edcee22835ef6b03ede1802dad4 ""
  "/usr/share/texmf-dist/tex/generic/tikz-cd/tikzlibrarycd.code.tex" 1591525106 23113 777d022ec96400121479223b4e174a8d ""
  "/usr/share/texmf-dist/tex/generic/uniquecounter/uniquecounter.sty" 1591545468 7008 f92eaa0a3872ed622bbf538217cd2ab7 ""
  "/usr/share/texmf-dist/tex/latex/amscls/amsthm.sty" 1591545468 12594 0d51ac3a545aaaa555021326ff22a6cc ""
  "/usr/share/texmf-dist/tex/latex/amsfonts/amsfonts.sty" 1591545468 5949 3f3fd50a8cc94c3d4cbf4fc66cd3df1c ""
  "/usr/share/texmf-dist/tex/latex/amsfonts/amssymb.sty" 1591545468 13829 94730e64147574077f8ecfea9bb69af4 ""
  "/usr/share/texmf-dist/tex/latex/amsfonts/umsa.fd" 1591545468 961 6518c6525a34feb5e8250ffa91731cff ""
  "/usr/share/texmf-dist/tex/latex/amsfonts/umsb.fd" 1591545468 961 d02606146ba5601b5645f987c92e6193 ""
  "/usr/share/texmf-dist/tex/latex/amsmath/amsbsy.sty" 1591545468 2211 ca7ce284ab93c8eecdc6029dc5ccbd73 ""
  "/usr/share/texmf-dist/tex/latex/amsmath/amsgen.sty" 1591545468 4161 7f6eb9092061a11f87d08ed13515b48d ""
  "/usr/share/texmf-dist/tex/latex/amsmath/amsmath.sty" 1591545468 85660 baee036978c7a91f4e2bba43f05e5945 ""
  "/usr/share/texmf-dist/tex/latex/amsmath/amsopn.sty" 1591545468 4116 32e6abd27229755a83a8b7f18e583890 ""
  "/usr/share/texmf-dist/tex/latex/amsmath/amstext.sty" 1591545468 2432 8ff93b1137020e8f21930562a874ae66 ""
  "/usr/share/texmf-dist/tex/latex/atveryend/atveryend.sty" 1591545468 19336 ce7ae9438967282886b3b036cfad1e4d ""
  "/usr/share/texmf-dist/tex/latex/auxhook/auxhook.sty" 1591545468 3935 57aa3c3e203a5c2effb4d2bd2efbc323 ""
  "/usr/share/texmf-dist/tex/latex/base/article.cls" 1591545468 20023 e427dd9e17e239bf926ef3aab67fe35e ""
  "/usr/share/texmf-dist/tex/latex/base/ifthen.sty" 1591545468 5159 892429808d9e0e2b3548aaefd9a06ed0 ""
  "/usr/share/texmf-dist/tex/latex/base/inputenc.sty" 1591545468 5050 8933a39ad74377accd18991c5eb90c58 ""
  "/usr/share/texmf-dist/tex/latex/base/size12.clo" 1591545468 8447 5c4b8ee712f8e349df2722115bc8c513 ""
  "/usr/share/texmf-dist/tex/latex/base/textcomp.sty" 1591545468 2821 2c0928feafd5527387e29a1af774d030 ""
  "/usr/share/texmf-dist/tex/latex/bbm-macros/bbm.sty" 1591522338 1644 1e0d54b051369c3f457872824cac219f ""
  "/usr/share/texmf-dist/tex/latex/blkarray/blkarray.sty" 1591524854 72396 c58b7130fcef93ea5c7323ef15cc4bc6 ""
  "/usr/share/texmf-dist/tex/latex/booktabs/booktabs.sty" 1591545468 6078 f1cb470c9199e7110a27851508ed7a5c ""
  "/usr/share/texmf-dist/tex/latex/caption/caption.sty" 1591545468 55681 9f734e1815747cb8bb47a735fd4254ad ""
  "/usr/share/texmf-dist/tex/latex/caption/caption3.sty" 1591545468 64207 bba542979d2533f31c75720ba779a52a ""
  "/usr/share/texmf-dist/tex/latex/caption/subcaption.sty" 1591545468 5937 3a338c8462fea6d5e61cecda091f49cf ""
  "/usr/share/texmf-dist/tex/latex/colortbl/colortbl.sty" 1591545468 10793 d0af3aa11e27ae35ba4685b17597b122 ""
  "/usr/share/texmf-dist/tex/latex/cool/cool.sty" 1591524854 76030 947625e3e04c74b8a603c1c62132937a ""
  "/usr/share/texmf-dist/tex/latex/coollist/coollist.sty" 1591524854 9449 d6223b50084fa372ed5234e47950fa3c ""
  "/usr/share/texmf-dist/tex/latex/coolstr/coolstr.sty" 1591524854 10418 ec5192ad0381f538cecec28cdc484bde ""
  "/usr/share/texmf-dist/tex/latex/enumitem/enumitem.sty" 1591524854 51697 f8f08183cd2080d9d18a41432d651dfb ""
  "/usr/share/texmf-dist/tex/latex/environ/environ.sty" 1591524854 4378 f429f0da968c278653359293040a8f52 ""
  "/usr/share/texmf-dist/tex/latex/epstopdf-pkg/epstopdf-base.sty" 1591545468 13886 d1306dcf79a944f6988e688c1785f9ce ""
  "/usr/share/texmf-dist/tex/latex/esvect/esvect.sty" 1591522338 2228 f0e3a0c630ba45124a894f16cbe0ce55 ""
  "/usr/share/texmf-dist/tex/latex/esvect/uesvect.fd" 1591522338 871 1db67a6cb048038ebd1c0c0f606b8537 ""
  "/usr/share/texmf-dist/tex/latex/etoolbox/etoolbox.sty" 1591545468 45259 743c52a37a6e5ed83cfe0e128b2da10d ""
  "/usr/share/texmf-dist/tex/latex/fancyvrb/fancyvrb.sty" 1591545468 43231 b2e5a61c56a7db26d1486185f2d1dd75 ""
  "/usr/share/texmf-dist/tex/latex/forloop/forloop.sty" 1591524854 1717 5de015d7c82d914c51b065065ca9fd34 ""
  "/usr/share/texmf-dist/tex/latex/fp/defpattern.sty" 1591545468 1081 6a8d78d0e6b2d89334f92fd122c1da99 ""
  "/usr/share/texmf-dist/tex/latex/fp/fp-addons.sty" 1591545468 1275 fe903646b72b3e877914d78f2db9ddda ""
  "/usr/share/texmf-dist/tex/latex/fp/fp-basic.sty" 1591545468 29695 b6366b50463dfb367cf560419d0cea8d ""
  "/usr/share/texmf-dist/tex/latex/fp/fp-eqn.sty" 1591545468 11336 afed7aa5dbc4bf246950282b95e522c2 ""
  "/usr/share/texmf-dist/tex/latex/fp/fp-eval.sty" 1591545468 6220 eeeffd00d1235e73c380c6dc9f30ac43 ""
  "/usr/share/texmf-dist/tex/latex/fp/fp-exp.sty" 1591545468 16965 df20a610ce368cd126fd73d1a4e4fef1 ""
  "/usr/share/texmf-dist/tex/latex/fp/fp-pas.sty" 1591545468 3006 6fd5da0dc83ba1d19525f1fb08dca7df ""
  "/usr/share/texmf-dist/tex/latex/fp/fp-random.sty" 1591545468 3702 6e54ac63212901d59e6ea2a32b0a7689 ""
  "/usr/share/texmf-dist/tex/latex/fp/fp-snap.sty" 1591545468 6519 c1e5d3c6aed32ba782f756d79578d87b ""
  "/usr/share/texmf-dist/tex/latex/fp/fp-trigo.sty" 1591545468 28969 342a2de338e342de95d2551557e50f06 ""
  "/usr/share/texmf-dist/tex/latex/fp/fp-upn.sty" 1591545468 7154 78a835a719e27a484e63f1f98ba4df11 ""
  "/usr/share/texmf-dist/tex/latex/fp/fp.sty" 1591545468 983 d84df22b060ce125f89a32c403dcab31 ""
  "/usr/share/texmf-dist/tex/latex/graphics-cfg/color.cfg" 1591545468 1213 620bba36b25224fa9b7e1ccb4ecb76fd ""
  "/usr/share/texmf-dist/tex/latex/graphics-cfg/graphics.cfg" 1591545468 1224 978390e9c2234eab29404bc21b268d1e ""
  "/usr/share/texmf-dist/tex/latex/graphics-def/pdftex.def" 1591545468 17448 c8e20d5f7e69b0cbecf82ab29daeebd9 ""
  "/usr/share/texmf-dist/tex/latex/graphics/graphics.sty" 1591545468 16932 04729abe63b66ec59ea56edcd722b058 ""
  "/usr/share/texmf-dist/tex/latex/graphics/graphicx.sty" 1591545468 9067 1b996612394a52e1efe89c8bfe8a5892 ""
  "/usr/share/texmf-dist/tex/latex/graphics/keyval.sty" 1591545468 2590 e3b24ff953e5b58d924f163d25380312 ""
  "/usr/share/texmf-dist/tex/latex/graphics/trig.sty" 1591545468 3976 d7fa7d81d2870d509d25b17d0245e735 ""
  "/usr/share/texmf-dist/tex/latex/hycolor/hycolor.sty" 1591545468 17914 4c28a13fc3d975e6e81c9bea1d697276 ""
  "/usr/share/texmf-dist/tex/latex/hyperref/hpdftex.def" 1591545468 50570 2e81797743231d9037b0cbe3436d74ba ""
  "/usr/share/texmf-dist/tex/latex/hyperref/hyperref.sty" 1591545468 236775 8ab18a05f69e6caef423fa59cb0af03b ""
  "/usr/share/texmf-dist/tex/latex/hyperref/nameref.sty" 1591545468 13244 0070bcab7b5a88187847128d22faf4d8 ""
  "/usr/share/texmf-dist/tex/latex/hyperref/pd1enc.def" 1591545468 14134 c11767c54bd7ecab56984ee4e4e3158c ""
  "/usr/share/texmf-dist/tex/latex/jknapltx/mathrsfs.sty" 1591545468 300 12fa6f636b617656f2810ee82cb05015 ""
  "/usr/share/texmf-dist/tex/latex/jknapltx/ursfs.fd" 1591545468 548 cc4e3557704bfed27c7002773fad6c90 ""
  "/usr/share/texmf-dist/tex/latex/kvoptions/kvoptions.sty" 1591545468 22520 c4c2dab203104295e1e618be7e5c0f5b ""
  "/usr/share/texmf-dist/tex/latex/l3backend/l3backend-pdfmode.def" 1591545468 25742 5de23a2d2bc67a3139433e702e64a437 ""
  "/usr/share/texmf-dist/tex/latex/l3kernel/expl3.sty" 1591545468 4713 eb01a5180e90c7ac1715bb64e2c31227 ""
  "/usr/share/texmf-dist/tex/latex/l3packages/l3keys2e/l3keys2e.sty" 1591545468 4615 4ac5fc0da0d4c20aef3a345b8be411eb ""
  "/usr/share/texmf-dist/tex/latex/l3packages/xfp/xfp.sty" 1591545468 1266 c6e547cb5f4be78593a56b390e73137e ""
  "/usr/share/texmf-dist/tex/latex/l3packages/xfrac/xfrac.sty" 1591545468 14742 e089e329101102d83ef21fee8dfe4bd4 ""
  "/usr/share/texmf-dist/tex/latex/l3packages/xparse/xparse-generic.tex" 1591545468 80141 edbf9289c99ff37db17116af7a3a423f ""
  "/usr/share/texmf-dist/tex/latex/l3packages/xparse/xparse.sty" 1591545468 5914 5eaa255b13fb7a5e47ededc8ec098dba ""
  "/usr/share/texmf-dist/tex/latex/l3packages/xtemplate/xtemplate.sty" 1591545468 48503 cfcfc7cb3a0c4d8978c2c72a9c9fa43d ""
  "/usr/share/texmf-dist/tex/latex/latexconfig/epstopdf-sys.cfg" 1591545468 678 4792914a8f45be57bb98413425e4c7af ""
  "/usr/share/texmf-dist/tex/latex/letltxmacro/letltxmacro.sty" 1591545468 5766 13a9e8766c47f30327caf893ece86ac8 ""
  "/usr/share/texmf-dist/tex/latex/listings/listings.cfg" 1591545468 1830 e31effa752c61538383451ae21332364 ""
  "/usr/share/texmf-dist/tex/latex/listings/listings.sty" 1591545468 80964 64e57373f36316e4a09b517cbf1aba2e ""
  "/usr/share/texmf-dist/tex/latex/listings/lstmisc.sty" 1591545468 77022 ee25ce086f4a79d8cf73bac6f94c02a5 ""
  "/usr/share/texmf-dist/tex/latex/listingsutf8/listingsutf8.sty" 1591524854 5148 1baf596b2560b44d9ff1889dc1d7564e ""
  "/usr/share/texmf-dist/tex/latex/makecmds/makecmds.sty" 1591524854 2296 b097750ac8010251101d5bbe1da4d1be ""
  "/usr/share/texmf-dist/tex/latex/mathtools/empheq.sty" 1591545468 46840 5d1bd8b17a285b97e58ae6cb634d6305 ""
  "/usr/share/texmf-dist/tex/latex/mathtools/mathtools.sty" 1591545468 55731 4347f70fb23a75dbacb3c5fd21dd2675 ""
  "/usr/share/texmf-dist/tex/latex/mathtools/mhsetup.sty" 1591545468 5437 39f2bba90502a381bd48d78339c1a5f0 ""
  "/usr/share/texmf-dist/tex/latex/ms/everyshi.sty" 1591545468 3878 6aa7c08ff2621006e0603349e40a30a8 ""
  "/usr/share/texmf-dist/tex/latex/multirow/bigstrut.sty" 1591524854 1251 92810978b2b27b4e3193d1d037bf2d67 ""
  "/usr/share/texmf-dist/tex/latex/numprint/numprint.sty" 1591524854 43541 af48d216c5f1c2effc55675ad75988d7 ""
  "/usr/share/texmf-dist/tex/latex/pdftexcmds/pdftexcmds.sty" 1591545468 19989 e08c4750d96640367c4b141017eda013 ""
  "/usr/share/texmf-dist/tex/latex/pgf/basiclayer/pgf.sty" 1591545468 1090 d20f587ea9464d1841bd0d13d3ff9856 ""
  "/usr/share/texmf-dist/tex/latex/pgf/basiclayer/pgfcore.sty" 1591545468 410 5bf12ea7330e5f12c445332a4fe9a263 ""
  "/usr/share/texmf-dist/tex/latex/pgf/compatibility/pgfcomp-version-0-65.sty" 1591545468 21013 e98e1aaaf40d31632787c2bd25d24b57 ""
  "/usr/share/texmf-dist/tex/latex/pgf/compatibility/pgfcomp-version-1-18.sty" 1591545468 989 2cf3da8e8ec55131c49389428d565e37 ""
  "/usr/share/texmf-dist/tex/latex/pgf/frontendlayer/tikz.sty" 1591545468 339 592cf35cba3d400082b8a9a5d0199d70 ""
  "/usr/share/texmf-dist/tex/latex/pgf/math/pgfmath.sty" 1591545468 306 0796eafca5e159e6ec2167a6d22d81b1 ""
  "/usr/share/texmf-dist/tex/latex/pgf/systemlayer/pgfsys.sty" 1591545468 443 0b2e781830192df35c0fd357cf13e26e ""
  "/usr/share/texmf-dist/tex/latex/pgf/utilities/pgffor.sty" 1591545468 348 8927fde343487e003b01a4c2ca34073b ""
  "/usr/share/texmf-dist/tex/latex/pgf/utilities/pgfkeys.sty" 1591545468 274 4cad6e665cc93ac2ac979039a94fa1e1 ""
  "/usr/share/texmf-dist/tex/latex/pgf/utilities/pgfrcs.sty" 1591545468 325 2bcd023400636339210573e2b3ee298b ""
  "/usr/share/texmf-dist/tex/latex/pgfplots/pgfplots.sty" 1591525106 4904 ee78b44e85d6fccf08cd99370557481e ""
  "/usr/share/texmf-dist/tex/latex/preprint/fullpage.sty" 1591524854 2789 05b418f78b224ec872f5b11081138605 ""
  "/usr/share/texmf-dist/tex/latex/psnfss/pifont.sty" 1591545468 2283 62e73848f29fd8cd37fb7974c7cf2221 ""
  "/usr/share/texmf-dist/tex/latex/psnfss/upsy.fd" 1591545468 148 2da0acd77cba348f34823f44cabf0058 ""
  "/usr/share/texmf-dist/tex/latex/psnfss/upzd.fd" 1591545468 148 b2a94082cb802f90d3daf6dd0c7188a0 ""
  "/usr/share/texmf-dist/tex/latex/refcount/refcount.sty" 1591545468 9878 9e94e8fa600d95f9c7731bb21dfb67a4 ""
  "/usr/share/texmf-dist/tex/latex/rerunfilecheck/rerunfilecheck.sty" 1591545468 9715 b051d5b493d9fe5f4bc251462d039e5f ""
  "/usr/share/texmf-dist/tex/latex/setspace/setspace.sty" 1591545468 22913 a27d7908fc6f0385466454a966a316eb ""
  "/usr/share/texmf-dist/tex/latex/siunitx/siunitx-abbreviations.cfg" 1591525385 4745 793d4d5a808c37a7085f620706b56fe1 ""
  "/usr/share/texmf-dist/tex/latex/siunitx/siunitx.sty" 1591525385 273434 c3d90844d64bf82fded1b064359b4e14 ""
  "/usr/share/texmf-dist/tex/latex/tcolorbox/tcbbreakable.code.tex" 1591524854 33368 487a6580cd340e8556cb7ccbd6294625 ""
  "/usr/share/texmf-dist/tex/latex/tcolorbox/tcbexternal.code.tex" 1591524854 9002 fccc5dbc78605fd9dda6677ebf1a444b ""
  "/usr/share/texmf-dist/tex/latex/tcolorbox/tcbfitting.code.tex" 1591524854 14602 feed2f00af4987c930332c002e57fc68 ""
  "/usr/share/texmf-dist/tex/latex/tcolorbox/tcbhooks.code.tex" 1591524854 8118 c04a8e9729c21631a517e83abba106bb ""
  "/usr/share/texmf-dist/tex/latex/tcolorbox/tcblistings.code.tex" 1591524854 3412 099c306300edda381e40b553fd5af41f ""
  "/usr/share/texmf-dist/tex/latex/tcolorbox/tcblistingscore.code.tex" 1591524854 13905 ed78f1e24ccfab9c3bd2a3b792863af4 ""
  "/usr/share/texmf-dist/tex/latex/tcolorbox/tcblistingsutf8.code.tex" 1591524854 1412 1bf7384f0719cee314ca85961ab08686 ""
  "/usr/share/texmf-dist/tex/latex/tcolorbox/tcbmagazine.code.tex" 1591524854 5630 7d71646787fbadcebd358dab3fe3ca74 ""
  "/usr/share/texmf-dist/tex/latex/tcolorbox/tcbposter.code.tex" 1591524854 12451 9ac6c5ee5501d98e34cd4628782539f6 ""
  "/usr/share/texmf-dist/tex/latex/tcolorbox/tcbprocessing.code.tex" 1591524854 2564 5ee3292f984516e0fbd70b18f98c5eae ""
  "/usr/share/texmf-dist/tex/latex/tcolorbox/tcbraster.code.tex" 1591524854 8922 ec5e5d42595880aebfbd19ebd8adc9fd ""
  "/usr/share/texmf-dist/tex/latex/tcolorbox/tcbskins.code.tex" 1591524854 84989 31e19a39f070bf0f2e85bb48f5aa7ec6 ""
  "/usr/share/texmf-dist/tex/latex/tcolorbox/tcbskinsjigsaw.code.tex" 1591524854 9020 73f208f230c17a84612024c5d86eac83 ""
  "/usr/share/texmf-dist/tex/latex/tcolorbox/tcbtheorems.code.tex" 1591524854 8512 53d8cb3a912a9d6ce7678b5c7ed7b9fc ""
  "/usr/share/texmf-dist/tex/latex/tcolorbox/tcbvignette.code.tex" 1591524854 12745 62f9f3aebbda8595e0abc12326fc3a71 ""
  "/usr/share/texmf-dist/tex/latex/tcolorbox/tcbxparse.code.tex" 1591524854 10004 ecd380a699b29107b19dd757910efd5a ""
  "/usr/share/texmf-dist/tex/latex/tcolorbox/tcolorbox.sty" 1591524854 85438 b65ec5ebd2361cb2b428387a723615aa ""
  "/usr/share/texmf-dist/tex/latex/tikz-3dplot/tikz-3dplot.sty" 1591525106 32488 0c21c95f67b6fe919f5892b4d3ac7813 ""
  "/usr/share/texmf-dist/tex/latex/tikz-cd/tikz-cd.sty" 1591525106 858 fe1b4d077c61915fa7d05919d4f7282f ""
  "/usr/share/texmf-dist/tex/latex/tkz-base/tkz-base.cfg" 1591525106 8045 a512662ec6f3779837dc237bb7332f64 ""
  "/usr/share/texmf-dist/tex/latex/tkz-base/tkz-base.sty" 1591525106 4139 4a330f7100fe8a27eaf9dec0b518aeef ""
  "/usr/share/texmf-dist/tex/latex/tkz-base/tkz-lib-marks.tex" 1591525106 4376 9a9e03b16ca03fe6e7a6b0da7cd69ef3 ""
  "/usr/share/texmf-dist/tex/latex/tkz-base/tkz-obj-axes.tex" 1591525106 18268 074e87abdc7506c112bbe807bcbf7dda ""
  "/usr/share/texmf-dist/tex/latex/tkz-base/tkz-obj-grids.tex" 1591525106 3522 b6f9f40718d9cb5cf35a17d035f932fe ""
  "/usr/share/texmf-dist/tex/latex/tkz-base/tkz-obj-marks.tex" 1591525106 4930 eb755188ed32f46800fc2dadff631da9 ""
  "/usr/share/texmf-dist/tex/latex/tkz-base/tkz-obj-points.tex" 1591525106 13424 11ade355ce21dc73fc166b909a1f0805 ""
  "/usr/share/texmf-dist/tex/latex/tkz-base/tkz-obj-rep.tex" 1591525106 2746 9a77bc935314846401dacc5a43134948 ""
  "/usr/share/texmf-dist/tex/latex/tkz-base/tkz-tools-BB.tex" 1591525106 2734 860de3ed5da00b16e1c3fa8c2ed719c8 ""
  "/usr/share/texmf-dist/tex/latex/tkz-base/tkz-tools-arith.tex" 1591525106 6503 f0dab6ef0c8e651791cd1e375e98495b ""
  "/usr/share/texmf-dist/tex/latex/tkz-base/tkz-tools-base.tex" 1591525106 3425 e029c94b840958c62dad857feb01206a ""
  "/usr/share/texmf-dist/tex/latex/tkz-base/tkz-tools-misc.tex" 1591525106 3505 996442bd6ce70f8025258e7a5764299a ""
  "/usr/share/texmf-dist/tex/latex/tkz-base/tkz-tools-modules.tex" 1591525106 2768 998d3986584c10972c007a936498f20d ""
  "/usr/share/texmf-dist/tex/latex/tkz-base/tkz-tools-print.tex" 1591525106 2731 2577fe1f2a751bc812252dc7c20fee56 ""
  "/usr/share/texmf-dist/tex/latex/tkz-base/tkz-tools-text.tex" 1591525106 2994 97faa71c6bb97c9d8339369b6a7c993e ""
  "/usr/share/texmf-dist/tex/latex/tkz-base/tkz-tools-utilities.tex" 1591525106 6581 ae4a26f1c256fb722e9ff7edbe38a27f ""
  "/usr/share/texmf-dist/tex/latex/tkz-euclide/tkz-euclide.sty" 1591525106 2203 811f2cb14097a8fe7a7bc1834ae64f11 ""
  "/usr/share/texmf-dist/tex/latex/tkz-euclide/tkz-obj-eu-angles.tex" 1591525106 11267 6ba1339feba7cf3c9c2c8e5472f0a664 ""
  "/usr/share/texmf-dist/tex/latex/tkz-euclide/tkz-obj-eu-arcs.tex" 1591525106 7460 6a5ab7af9a49f31bfae577af92cdf2fb ""
  "/usr/share/texmf-dist/tex/latex/tkz-euclide/tkz-obj-eu-circles.tex" 1591525106 9373 a58d6fe48dece0e8bd077e7317a68b21 ""
  "/usr/share/texmf-dist/tex/latex/tkz-euclide/tkz-obj-eu-compass.tex" 1591525106 4301 9e36f63fc455734cffd4ff013d7a786d ""
  "/usr/share/texmf-dist/tex/latex/tkz-euclide/tkz-obj-eu-draw-circles.tex" 1591525106 9058 715af29704a1e89c8aaf38ca67d93d96 ""
  "/usr/share/texmf-dist/tex/latex/tkz-euclide/tkz-obj-eu-draw-lines.tex" 1591525106 16354 69f081486848b02a6055bf56b9cc98dc ""
  "/usr/share/texmf-dist/tex/latex/tkz-euclide/tkz-obj-eu-draw-polygons.tex" 1591525106 3362 51e32066d82a2628de340bab4ed02a50 ""
  "/usr/share/texmf-dist/tex/latex/tkz-euclide/tkz-obj-eu-draw-triangles.tex" 1591525106 2280 6ec31b982f9e295e218a60a3caee2069 ""
  "/usr/share/texmf-dist/tex/latex/tkz-euclide/tkz-obj-eu-lines.tex" 1591525106 8564 d96550c5e575f0da8fba57412f6ef0f6 ""
  "/usr/share/texmf-dist/tex/latex/tkz-euclide/tkz-obj-eu-points-by.tex" 1591525106 14714 e9ac7dbe7c95ef62336eb748547bc91d ""
  "/usr/share/texmf-dist/tex/latex/tkz-euclide/tkz-obj-eu-points-rnd.tex" 1591525106 5309 154f7c1eddfb2e415b07cca2172fd033 ""
  "/usr/share/texmf-dist/tex/latex/tkz-euclide/tkz-obj-eu-points-with.tex" 1591525106 10776 192e36818459600c5b6565674bfd181a ""
  "/usr/share/texmf-dist/tex/latex/tkz-euclide/tkz-obj-eu-points.tex" 1591525106 18337 e04b23bec166a7d8e4f8abddacce46f5 ""
  "/usr/share/texmf-dist/tex/latex/tkz-euclide/tkz-obj-eu-polygons.tex" 1591525106 4118 8c0e5033b0ec6d2a77b64d94513c0467 ""
  "/usr/share/texmf-dist/tex/latex/tkz-euclide/tkz-obj-eu-protractor.tex" 1591525106 4582 5f1cdd342304e4f78b99760ce72cae99 ""
  "/usr/share/texmf-dist/tex/latex/tkz-euclide/tkz-obj-eu-sectors.tex" 1591525106 14220 9d7f52b90b49e41b6a3d36327d671018 ""
  "/usr/share/texmf-dist/tex/latex/tkz-euclide/tkz-obj-eu-show.tex" 1591525106 14417 4c5c98d35bd085f064fda58069e25ba0 ""
  "/usr/share/texmf-dist/tex/latex/tkz-euclide/tkz-obj-eu-triangles.tex" 1591525106 15917 47bac1f845bf9915d030997e7d40d5f6 ""
  "/usr/share/texmf-dist/tex/latex/tkz-euclide/tkz-tools-angles.tex" 1591525106 3116 500d39ad01f08376c2905489b5f16335 ""
  "/usr/share/texmf-dist/tex/latex/tkz-euclide/tkz-tools-intersections.tex" 1591525106 14814 32d64134e09e5d1175ae613062c2ba3f ""
  "/usr/share/texmf-dist/tex/latex/tkz-euclide/tkz-tools-math.tex" 1591525106 4817 84a0f6fbe1ac6d5e2ad64f3bf2c7dcd1 ""
  "/usr/share/texmf-dist/tex/latex/tools/array.sty" 1591545468 12560 ce3f59ceae9d9a27bfe037d6bf1d903c ""
  "/usr/share/texmf-dist/tex/latex/tools/calc.sty" 1591545468 10216 5efd55f2010055e7b7875afd6a75be82 ""
  "/usr/share/texmf-dist/tex/latex/tools/multicol.sty" 1591545468 31532 04852e45d7c17cb384689d2f83b628d3 ""
  "/usr/share/texmf-dist/tex/latex/tools/shellesc.sty" 1591545468 4120 d1680a5ff60d0aea9c327e07c030f4e9 ""
  "/usr/share/texmf-dist/tex/latex/tools/verbatim.sty" 1591545468 7308 a7fb09b68a4a07a482e876fbe2959b04 ""
  "/usr/share/texmf-dist/tex/latex/translator/translator-basic-dictionary-English.dict" 1591545468 3435 0a4d096dde3f8fe682c2aedd33b8137d ""
  "/usr/share/texmf-dist/tex/latex/translator/translator.sty" 1591545468 8691 e154b4b39c7cd1cfa9301a391c44afdd ""
  "/usr/share/texmf-dist/tex/latex/transparent/transparent.sty" 1591524854 4155 541de118e0abc42fce3317addc90afb0 ""
  "/usr/share/texmf-dist/tex/latex/trimspaces/trimspaces.sty" 1591524854 1380 971a51b00a14503ddf754cab24c3f209 ""
  "/usr/share/texmf-dist/tex/latex/units/nicefrac.sty" 1591524854 4029 0462ee5ab265cf59dc15a41a3b883101 ""
  "/usr/share/texmf-dist/tex/latex/url/url.sty" 1591545468 12796 8edb7d69a20b857904dd0ea757c14ec9 ""
  "/usr/share/texmf-dist/tex/latex/xcolor/xcolor.sty" 1591545468 55589 34128738f682d033422ca125f82e5d62 ""
  "/usr/share/texmf-dist/web2c/texmf.cnf" 1546282455 33324 1de3028ca90633eeb0c124964000f19e ""
  "/usr/share/texmf/tex/latex/sagetex/sagetex.sty" 1577952998 10686 e78687fc7f76acadc0deb138f8eeab69 ""
  "/var/lib/texmf/fonts/map/pdftex/updmap/pdftex.map" 1592458653 4764617 51d55e88a02c66918b83304c1224add7 ""
  "/var/lib/texmf/web2c/pdftex/pdflatex.fmt" 1592458627 2514045 6172ee49f0717cfd93059726986f6306 ""
  "unit03-section01.aux" 1593557172 2227 e292bc0f0ddc9108fc9e31a75bd75c8f "pdflatex"
  "unit03-section01.out" 1593557172 449 3cee90f00ab28aa31295ed1f5c549fd1 "pdflatex"
  "unit03-section01.sagetex.sout" 1593557167 8065 11dceda8dcca74a50f9e583a9f5ae5e1 "cusdep sage sout unit03-section01.sagetex"
  "unit03-section01.tex" 1593557022 23316 e625f51dd2db7487aadbc9084afd39b1 ""
  "unit03-section01.toc" 1593557172 596 47fe2343032a6438a74ca967c9ef9b90 "pdflatex"
  (generated)
  "unit03-section01.out"
  "unit03-section01.aux"
  "unit03-section01.sagetex.sage"
  "unit03-section01.toc"
  "unit03-section01.pdf"
  "unit03-section01.log"
